{
	"__ver": "pantry:5",
	"_id": "k8bTvXOHTnaJsF4qiTcMcw",
	"build_config": {
		"exclude": [
			"User",
			"BusinessObjectPackage",
			{
				"class_name": "Config",
				"condition": {
					"key": {
						"$contains": "sys.user.preferences|sys.packageBuilding"
					}
				}
			}
		]
	},
	"changelog": [
	],
	"description": "A simple mobile-friendly utility to assist in managing food distribution for a small-scale food bank.",
	"git_repo": "https://gitlab.com/NoonianApps/food-pantry-tracker",
	"key": "app.pantry",
	"manifest": {
		"AngularApp": {
			"x8mYDn7vTFy8JCRDudQVMA": "pantry:84"
		},
		"AngularModule": {
			"h6j0A2o7TAKyXrTZdgDgCQ": "pantry:4"
		},
		"BusinessObjectDef": {
			"HNhm2xl5QXm7VB-2ig7cAw": "pantry:4",
			"Kou-3WWwQcq2NFvBdEJzYQ": "pantry:1",
			"samFt8YzSVWKXlZfhGqzuA": "pantry:5"
		},
		"Config": {
			"Gs31f7unSBWruVQ3IeFZew": "pantry:3",
			"O5YKNk2ERYGmRo0udDAEFg": "pantry:1",
			"QBRaOWM4So-smX6DflWbVw": "pantry:4",
			"QMoAt6-MRaiJxY0-VAORSQ": "pantry:7",
			"gyH8z2WbQn-7wxuqOKHH8A": "pantry:2",
			"pzQ65Ov3Qj6lvdIOg6WxHQ": "pantry:2"
		},
		"CssResource": {
			"WCcRzyduRSWszR9P2kYlHg": "pantry:41"
		},
		"DataAccessControl": {
			"Dl8wIC-FTJa1rP57kIjrTw": "pantry:2"
		},
		"FileResource": {
			"CfoFdDoLRquTUzcREGWNhg": "pantry:3",
			"X6_BdjY_QJadxGYJgiRIOA": "pantry:7",
			"fr5yCIAmRHGNVc-F7CmBaQ": "pantry:3"
		},
		"LabelGroup": {
			"HzR5cudETTKPOTj_plsitQ": "pantry:3",
			"oIlHzxH0T2KE5ZkWrAz-_Q": "pantry:1",
			"w3YAoUJ9Spm4I2aXL3p3zw": "pantry:1"
		},
		"Menu": {
			"lOvJJLdyShaaWTe2mJrU2A": "pantry:3"
		},
		"Role": {
			"ScUSkxpARi2hfE7Ip2HSgA": "pantry:1"
		},
		"ServiceOrg": {
			"5ftW1XO5QOuLoEaItwEM3w": "pantry:4"
		},
		"WebService": {
			"AG35aZ82TV2ygynncIAa4A": "pantry:2",
			"LRGqtpMpQsOstCsIoDkh5A": "pantry:5"
		}
	},
	"name": "Food Pantry Tracker",
	"package_file": {
		"attachment_id": "A4juux8rT6CIOE8rgLCPhA",
		"filename": "app.pantry.0.0.2.json",
		"type": "application/json"
	},
	"version": "0.0.2"
}