{
	"__ver": "pantry:3",
	"_id": "lOvJJLdyShaaWTe2mJrU2A",
	"definition": [
		{
			"icon": "fa-warehouse",
			"isOpen": true,
			"label": "App Admin",
			"submenu": [
				{
					"action": {
						"params": {
							"className": "ServiceOrg",
							"perspective": "default"
						},
						"state": "dbui.list"
					},
					"label": "Service Orgs"
				},
				{
					"action": {
						"params": {
							"className": "ServiceDay",
							"perspective": "default"
						},
						"state": "dbui.list"
					},
					"label": "Service Days"
				},
				{
					"action": {
						"params": {
							"className": "ServiceStation",
							"perspective": "default"
						},
						"state": "dbui.list"
					},
					"label": "Service Stations"
				}
			]
		}
	],
	"key": "app.pantry_admin",
	"rolespec": [
	],
	"type": "static"
}