{
	"__ver": "pantry:7",
	"_id": "X6_BdjY_QJadxGYJgiRIOA",
	"content": {
		"attachment_id": "t5-52wFbRV625Bbb46hT2Q",
		"filename": "robotBlip.mp3",
		"size": 7561,
		"type": "audio/mpeg"
	},
	"doc": "http://soundbible.com/1682-Robot-Blip.html\n(CC BY)",
	"name": "blip.mp3",
	"path": "sfx",
	"rolespec": [
	]
}