{
	"__ver": "pantry:2",
	"_id": "pzQ65Ov3Qj6lvdIOg6WxHQ",
	"key": "sys.dbui.perspective.default.ServiceOrg",
	"system": false,
	"value": {
		"edit": {
			"layout": [
				"name"
			]
		},
		"list": {
			"fields": [
				"name"
			]
		}
	}
}