{
	"__ver": "pantry:2",
	"_id": "Dl8wIC-FTJa1rP57kIjrTw",
	"allow_create": true,
	"allow_delete": true,
	"allow_read": true,
	"allow_update": true,
	"business_object": [
		{
			"_disp": "ServiceDay",
			"_id": "HNhm2xl5QXm7VB-2ig7cAw"
		},
		{
			"_disp": "ServiceOrg",
			"_id": "Kou-3WWwQcq2NFvBdEJzYQ"
		},
		{
			"_disp": "ServiceStation",
			"_id": "samFt8YzSVWKXlZfhGqzuA"
		}
	],
	"name": "Admin access for non-sysadmin",
	"rolespec": [
		"ScUSkxpARi2hfE7Ip2HSgA"
	]
}