{
	"__ver": "pantry:149",
	"_id": "olqYhBhgQ6ytPf8KN6S9Hg",
	"active": true,
	"date": "2020-12-05",
	"org": {
		"_disp": "South Bay Food Pantry",
		"_id": "5ftW1XO5QOuLoEaItwEM3w"
	},
	"passcode": "1234",
	"promised": 263,
	"served": 32,
	"stations": [
		{
			"quantity_available": null,
			"station": {
				"_disp": "Refrigerated",
				"_id": "tJVrzasUTpCP_nBgpod1Nw"
			}
		},
		{
			"quantity_available": null,
			"station": {
				"_disp": "Starbucks",
				"_id": "1RaEHAHATDalE7T9ErDhiw"
			}
		},
		{
			"quantity_available": null,
			"station": {
				"_disp": "Grocery",
				"_id": "VCbdvrapQr2Af9oD5-YJXQ"
			}
		},
		{
			"quantity_available": null,
			"station": {
				"_disp": "FDA Boxes",
				"_id": "xi8c6031Rf2KQlXQBJtblA"
			}
		},
		{
			"quantity_available": null,
			"station": {
				"_disp": "Produce",
				"_id": "BQhPdT8IT_WgZgBaJdrpCA"
			}
		}
	]
}